launch_status failed=0 1709899844000000000
launch_status broken=0 1709899844000000000
launch_status passed=23 1709899844000000000
launch_status skipped=0 1709899844000000000
launch_status unknown=0 1709899844000000000
launch_time duration=11477 1709899844000000000
launch_time min_duration=146 1709899844000000000
launch_time max_duration=1312 1709899844000000000
launch_time sum_duration=10761 1709899844000000000
launch_retries retries=42 1709899844000000000
launch_retries run=23 1709899844000000000
