"Status","Start Time","Stop Time","Duration in ms","Parent Suite","Suite","Sub Suite","Test Class","Test Method","Name","Description"
"passed","Fri Mar 08 17:28:35 IST 2024","Fri Mar 08 17:28:35 IST 2024","412","Suite","Test","TestPackage.Test_Case_8","TestPackage.Test_Case_8","validator","post_login_test",""
"passed","Fri Mar 08 17:28:41 IST 2024","Fri Mar 08 17:28:41 IST 2024","392","Suite","Test","TestPackage.Test_Case_1","TestPackage.Test_Case_1","validator","Data_Provider_Different_Class_Test",""
"passed","Fri Mar 08 17:28:39 IST 2024","Fri Mar 08 17:28:39 IST 2024","406","Suite","Test","TestPackage.Test_Case_A5","TestPackage.Test_Case_A5","validator","Data_Provider_Different_Class_Test",""
"passed","Fri Mar 08 17:28:33 IST 2024","Fri Mar 08 17:28:34 IST 2024","791","Suite","Test","TestPackage.Test_Case_5","TestPackage.Test_Case_5","validator","post_login_test",""
"passed","Fri Mar 08 17:28:36 IST 2024","Fri Mar 08 17:28:37 IST 2024","508","Suite","Test","TestPackage.Test_Case_A3","TestPackage.Test_Case_A3","validator","Data_Provider_Different_Class_Test",""
"passed","Fri Mar 08 17:28:41 IST 2024","Fri Mar 08 17:28:42 IST 2024","419","Suite","Test","TestPackage.Test_Case_1","TestPackage.Test_Case_1","validator","Data_Provider_Different_Class_Test",""
"passed","Fri Mar 08 17:28:34 IST 2024","Fri Mar 08 17:28:35 IST 2024","398","Suite","Test","TestPackage.Test_Case_7","TestPackage.Test_Case_7","validator","post_login_test",""
"passed","Fri Mar 08 17:28:37 IST 2024","Fri Mar 08 17:28:38 IST 2024","404","Suite","Test","TestPackage.Test_Case_A3","TestPackage.Test_Case_A3","validator","Data_Provider_Different_Class_Test",""
"passed","Fri Mar 08 17:28:34 IST 2024","Fri Mar 08 17:28:34 IST 2024","448","Suite","Test","TestPackage.Test_Case_5","TestPackage.Test_Case_5","validator","post_login_test",""
"passed","Fri Mar 08 17:28:31 IST 2024","Fri Mar 08 17:28:32 IST 2024","1312","Suite","Test","TestPackage.Test_Case_A2","TestPackage.Test_Case_A2","validator","post_login_test",""
"passed","Fri Mar 08 17:28:40 IST 2024","Fri Mar 08 17:28:40 IST 2024","393","Suite","Test","TestPackage.Test_Case_A7","TestPackage.Test_Case_A7","validator","Data_Provider_Different_Class_Test",""
"passed","Fri Mar 08 17:28:42 IST 2024","Fri Mar 08 17:28:42 IST 2024","395","Suite","Test","TestPackage.Test_Case_1","TestPackage.Test_Case_1","validator","Data_Provider_Different_Class_Test",""
"passed","Fri Mar 08 17:28:35 IST 2024","Fri Mar 08 17:28:36 IST 2024","436","Suite","Test","TestPackage.Test_Case_9","TestPackage.Test_Case_9","validator","Data_Provider_Different_Class_Test",""
"passed","Fri Mar 08 17:28:36 IST 2024","Fri Mar 08 17:28:36 IST 2024","262","Suite","Test","TestPackage.Test_Case_AA","TestPackage.Test_Case_AA","validator","Data_Provider_Different_Class_Test",""
"passed","Fri Mar 08 17:28:42 IST 2024","Fri Mar 08 17:28:43 IST 2024","422","Suite","Test","TestPackage.Test_Case_1","TestPackage.Test_Case_1","validator","Data_Provider_Different_Class_Test",""
"passed","Fri Mar 08 17:28:37 IST 2024","Fri Mar 08 17:28:37 IST 2024","614","Suite","Test","TestPackage.Test_Case_A3","TestPackage.Test_Case_A3","validator","Data_Provider_Different_Class_Test",""
"passed","Fri Mar 08 17:28:36 IST 2024","Fri Mar 08 17:28:36 IST 2024","466","Suite","Test","TestPackage.Test_Case_9","TestPackage.Test_Case_9","validator","Data_Provider_Different_Class_Test",""
"passed","Fri Mar 08 17:28:40 IST 2024","Fri Mar 08 17:28:40 IST 2024","407","Suite","Test","TestPackage.Test_Case_A7","TestPackage.Test_Case_A7","validator","Data_Provider_Different_Class_Test",""
"passed","Fri Mar 08 17:28:33 IST 2024","Fri Mar 08 17:28:33 IST 2024","488","Suite","Test","TestPackage.Test_Case_A1","TestPackage.Test_Case_A1","validator","post_login_test",""
"passed","Fri Mar 08 17:28:39 IST 2024","Fri Mar 08 17:28:40 IST 2024","419","Suite","Test","TestPackage.Test_Case_A7","TestPackage.Test_Case_A7","validator","Data_Provider_Different_Class_Test",""
"passed","Fri Mar 08 17:28:40 IST 2024","Fri Mar 08 17:28:41 IST 2024","419","Suite","Test","TestPackage.Test_Case_A7","TestPackage.Test_Case_A7","validator","Data_Provider_Different_Class_Test",""
"passed","Fri Mar 08 17:28:43 IST 2024","Fri Mar 08 17:28:43 IST 2024","146","Suite","Test","TestPackage.Test_Case_A9","TestPackage.Test_Case_A9","validator","Data_Provider_Different_Class_Test",""
"passed","Fri Mar 08 17:28:38 IST 2024","Fri Mar 08 17:28:38 IST 2024","404","Suite","Test","TestPackage.Test_Case_A3","TestPackage.Test_Case_A3","validator","Data_Provider_Different_Class_Test",""
